Age Table ID,Table Name,From Age,Male,Female,Child Male,Child Female,Result
8317,Premi HS-AUTOMATE-1300-11,0,0,0,1603456.157,1603456.157, 
8317,Premi HS-AUTOMATE-1300-11,16,2137941.543,2672426.929,1603456.157,1603456.157, 
8317,Premi HS-AUTOMATE-1300-11,56,3206912.315,4168986.009,0,0, 
8317,Premi HS-AUTOMATE-1300-11,61,5344853.858,6948310.015,0,0, 
8317,Premi HS-AUTOMATE-1300-11,99,5344853.858,6948310.015,0,0, 
