TransactionType,MembershipType,EmployeeID,MemberNo,MemberName,ClassNo,Sex,DateOfBirth,MaritalStatus,EffectiveDate,Area,CardNo,CardRequestDate,Phone,Email,AccountBank,AccountName,AccountNo,CoverageByEligibility,NM,OP
N,1. EMP,AUTOCHUHATSU-36,,WAHYU AUTOMATE,1,M,04/23/1984,M,01/01/2019,HO,,,081806221986,afebian@asuransiastra.com,BMRIIDJA,WAHYU AUTOMATE,125000121212,NO,OP-CTI-NP1,OP-CTI-130
N,2. SPO,AUTOCHUHATSU-36,,TIRA AUTOMATE,1,F,03/04/1984,M,01/01/2019,HO,,,081806221986,afebian@asuransiastra.com,BMRIIDJA,WAHYU AUTOMATE,125000121212,NO,OP-CTI-NP1,OP-CTI-130
N,3. CHI,AUTOCHUHATSU-36,,FATAN AUTOMATE,1,F,12/05/2010,S,01/01/2019,HO,,,081806221986,afebian@asuransiastra.com,BMRIIDJA,WAHYU AUTOMATE,125000121212,No,OP-CTI-NP1,OP-CTI-130
N,3. CHI,AUTOCHUHATSU-36,,DINDA AUTOMATE,1,F,12/05/2012,S,01/01/2019,HO,,,081806221986,afebian@asuransiastra.com,BMRIIDJA,WAHYU AUTOMATE,125000121212,No,OP-CTI-NP1,OP-CTI-130
